/Users/rkandanuru/Downloads/TREKAndroid-TestAutomation/src/com/trekApp/AndroidTest/GenericMethodsLib/GenericreUsableMethods.java
/Users/rkandanuru/Downloads/TREKAndroid-TestAutomation/src/test/java/com/testAndroid/Tests/Test1.java
/Users/rkandanuru/Downloads/TREKAndroid-TestAutomation/src/main/java/com/testAndroid/Pages/TREKAndroidAppScreen1.java
/Users/rkandanuru/Downloads/TREKAndroid-TestAutomation/src/com/trekApp/AndroidTest/GenericMethodsLib/ExtentManager.java
